%YAML 1.1
%TAG !u! tag:unity3d.com,2011:
--- !u!1045 &1
EditorBuildSettings:
  m_ObjectHideFlags: 0
  serializedVersion: 2
  m_Scenes:
  - enabled: 1
    path: Assets/Barista/Scenes/Root.unity
    guid: 1cd8ac4320cd5e5448271a346078193d
  - enabled: 1
    path: Assets/Barista/Scenes/Game.unity
    guid: f51ca88706b2a464fa25cb3e1dcf9213
  - enabled: 1
    path: Assets/Barista/Core/Scenes/Shop.unity
    guid: 964a44c97b6ab7342af231a30bcdccc1
